Bajar Data del Fondo Monetario Internacional IMF Utilizando R | Fernando Greve
…
## The following objects are masked from 'package:base':
## 
##     intersect, setdiff, setequal, union

library(countrycode)
data(codelist)
country_set <- codelist
country_set<- country_set %>% 
  select(country.name.en , iso2c, iso3c, imf, continent, region) %>% filter(!is.na(imf) & !is.na(iso2c))

country_set

## # A tibble: 214 x 6
##    country.name.en   iso2c iso3c   imf continent region                    
##    <chr>             <chr> <chr> <dbl> <chr>     <chr>                     
##  1 Afghanistan       AF    AFG     512 Asia      South Asia                
##  2 Albania           AL    ALB     914 Europe    Europe & Central Asia     
##  3 Algeria           DZ    DZA     612 Africa    Middle East & North Africa
##  4 American Samoa    AS    ASM     859 Oceania   East Asia & Pacific       
##  5 Angola            AO    AGO     614 Africa    Sub-Saharan Africa        
##  6 Anguilla          AI    AIA     312 Americas  Latin America & Caribbean 
##  7 Antigua & Barbuda AG    ATG     311 Americas  Latin America & Caribbean 
##  8 Argentina         AR    ARG     213 Americas  Latin America & Caribbean 
##  9 Armenia           AM    ARM     911 Asia      Europe & Central Asia     
## 10 Aruba             AW    ABW     314 Americas  Latin America & Caribbean 
## # ... with 204 more rows
…
DOT_Eastern_Asia_Data <- DOT_Eastern_Asia$CompactData$DataSet$Series

library(tidyr) # unnest() 
DOT_Eastern_Asia_Data <- DOT_Eastern_Asia_Data %>% 
  filter(`@FREQ` == "A" & `@COUNTERPART_AREA` %in% Africa_ISO2) %>% unnest(Obs) %>% 
  arrange(`@REF_AREA`, `@COUNTERPART_AREA`)  

DOT_Eastern_Asia_Data

## # A tibble: 1,614 x 8
##    `@FREQ` `@REF_AREA` `@INDICATOR` `@COUNTERPART_A~ `@UNIT_MULT` `@TIME_FORMAT`
##    <chr>   <chr>       <chr>        <chr>            <chr>        <chr>         
##  1 A       CN          TXG_FOB_USD  AO               6            P1Y           
##  2 A       CN          TXG_FOB_USD  AO               6            P1Y           
##  3 A       CN          TXG_FOB_USD  AO               6            P1Y           
##  4 A       CN          TXG_FOB_USD  AO               6            P1Y           
##  5 A       CN          TXG_FOB_USD  AO               6            P1Y           
##  6 A       CN          TXG_FOB_USD  AO               6            P1Y           
##  7 A       CN          TXG_FOB_USD  AO               6            P1Y           
##  8 A       CN          TXG_FOB_USD  AO               6            P1Y           
##  9 A       CN          TXG_FOB_USD  AO               6            P1Y           
## 10 A       CN          TXG_FOB_USD  AO               6            P1Y           
## # ... with 1,604 more rows, and 2 more variables: `@TIME_PERIOD` <chr>,
## #   `@OBS_VALUE` <chr>
…
